…
## Quality Control Of Trimmed and Filtered NGS Data

------------------------------------------------------------------------

Paired end seqeunce data of 36 samples were downloaded from SRA using
sratoolkit (3.0.0) fastq-dump. Reads were timmed with Trimmomatic
(@bolger_trimmomatic:\_2014) (version 0.39). The minimum sequence length
was set to 200 bp. After Trimmomatic operations, FastQC (@464) and
MultiQC (@doi:10.1093/bioinformatics/btw354) were performed to get
summary statistics about raw-filtered NGS data.

The below table shows some of the summary statistics.  
  

    ## # A tibble: 72 × 18
    ##    Sample     Pair  `Total Sequences` Sequences flagged as p…¹ `Sequence length`
    ##    <chr>      <chr>             <dbl>                    <dbl> <chr>            
    ##  1 ERR7018437 1                242167                        0 200-251          
    ##  2 ERR7018437 2                242167                        0 200-251          
    ##  3 ERR7018441 1                165580                        0 200-251          
    ##  4 ERR7018441 2                165580                        0 200-251          
    ##  5 ERR7018443 1                  4508                        0 200-251          
    ##  6 ERR7018443 2                  4508                        0 200-251          
    ##  7 ERR7018450 1                533885                        0 200-251          
    ##  8 ERR7018450 2                533885                        0 200-251          
    ##  9 ERR7018455 1                403037                        0 200-251          
    ## 10 ERR7018455 2                403037                        0 200-251          
    ## # ℹ 62 more rows
    ## # ℹ abbreviated name: ¹​`Sequences flagged as poor quality`
    ## # ℹ 13 more variables: `% GC` <dbl>, total_deduplicated_percentage <dbl>,
    ## #   avg_sequence_length <dbl>, basic_statistics <chr>,
    ## #   per_base_sequence_quality <chr>, per_sequence_quality_scores <chr>,
    ## #   per_base_sequence_content <chr>, per_sequence_gc_content <chr>,
    ## #   per_base_n_content <chr>, sequence_length_distribution <chr>, …
…
## Alignment Results

------------------------------------------------------------------------

Reads were aligned to *Human herpesvirus five strain Merlin, complete
genome* (GenBank Accession: AY446894.2) using BWA-MEM
(@li_aligning_2013) (Version: 0.7.17-r1188). Alignment files were
filtered and sorted using Samtools (@10.1093/gigascience/giab008)
(Version: 1.16.1). Output bam files were de-duplicated using Picard
MarkDuplicates (@Picard2018toolkit).  
Some important summary results from de duplicated-bam alignment files
were presented below.  
  

    ## # A tibble: 36 × 10
    ##    sampleID   name  start    end numreads covbasses coverage meandepth meanbaseq
    ##    <chr>      <chr> <dbl>  <dbl>    <dbl>     <dbl>    <dbl>     <dbl>     <dbl>
    ##  1 ERR7018437 AY44…     1 235646   133542    223758     95.0   135.         37.1
    ##  2 ERR7018441 AY44…     1 235646    74567    226520     96.1    75.9        37.2
    ##  3 ERR7018443 AY44…     1 235646     1080    129090     54.8     1.04       36.9
    ##  4 ERR7018450 AY44…     1 235646   927915    224058     95.1   919.         37  
    ##  5 ERR7018455 AY44…     1 235646   508385    224345     95.2   507.         37  
    ##  6 ERR7018466 AY44…     1 235646    32915    224683     95.3    33.1        37.2
    ##  7 ERR7018474 AY44…     1 235646      920     91605     38.9     0.799      37  
    ##  8 ERR7018482 AY44…     1 235646   339374    222538     94.4   338.         37  
    ##  9 ERR7018493 AY44…     1 235646   967097    222976     94.6   954.         36.6
    ## 10 ERR7018500 AY44…     1 235646  1150628    224520     95.3  1134.         36.7
    ## # ℹ 26 more rows
    ## # ℹ 1 more variable: meanmapq <dbl>
…
Variants were called on deduplicated-bam files and filtered using
bcftools (version 1.16).(@li_statistical_2011). Later SnpEff database
for AY446894.2 was build following instructions shared on SnpEff
website.
(<http://pcingola.github.io/SnpEff/se_faq/#how-to-building-an-ncbi-genome-genbank-file>)
Variants in coding regions were annotated using SnpEff
(@cingolani2012program). Annotated variants were extracted with SnpSift
(@cingolani2012using). Number of different annotations were summarized
below table. *Note that beacuse the of overlapping genes and regions
below numbers are not exact representation of number of variants. During
the variant extraction process each variant extracted seperate rows to
enable quick downstream pprocess.*  
  

    ## # A tibble: 379 × 3
    ## # Groups:   SampleID, EFFECT [379]
    ##    SampleID   EFFECT             `Number of Variations`
    ##    <chr>      <chr>                               <int>
    ##  1 ERR7018500 synonymous_variant                   2287
    ##  2 ERR7019208 synonymous_variant                   2287
    ##  3 ERR7018493 synonymous_variant                   2284
    ##  4 ERR7020529 synonymous_variant                   2279
    ##  5 ERR7021186 synonymous_variant                   2277
    ##  6 ERR7034987 synonymous_variant                   2270
    ##  7 ERR7038539 synonymous_variant                   2270
    ##  8 ERR7039799 synonymous_variant                   2269
    ##  9 ERR7036363 synonymous_variant                   2266
    ## 10 ERR7033612 synonymous_variant                   2260
    ## # ℹ 369 more rows
…
</div>

  
  
A higher number of non-synonymous SNPs were observed in UL8, UL74, UL75,
and UL150 genes *(Plot 5, Plot 6)*. The products of these genes were
summarized in the following table.  
  

    ## # A tibble: 40 × 4
    ##    Gene  Product                                                  Position Note 
    ##    <chr> <chr>                                                    <chr>    <chr>
    ##  1 RL1   RL1 family                                               [1366:2… prot…
    ##  2 RL5A  RL11 family                                              [5388:5… prot…
    ##  3 RL10  type 1 membrane protein; possibly related to RL11 family [8600:9… enve…
    ##  4 RL12  type 1 membrane protein; RL11 family                     [9849:1… memb…
    ##  5 RL13  type 1 membrane protein; RL11 family; consensus is wild… [11188:… memb…
    ##  6 UL1   type 1 membrane protein; RL11 family                     [12173:… memb…
    ##  7 UL4   contains signal peptide; RL11 family                     [13820:… enve…
    ##  8 UL6   type 1 membrane protein; RL11 family                     [14964:… memb…
    ##  9 UL8   type 1 membrane protein; RL11 family                     join{[1… memb…
    ## 10 UL7   type 1 membrane protein; modulates cytokine production;… [15864:… memb…
    ## # ℹ 30 more rows
…
Annotated-VCF files were searched for the presence of known antiviral
resistance-related mutations using the Hrpesvirus Drug Resistance
Genotyping web server (<http://cmv-resistance.ucl.ac.uk/herpesdrg/>). No
antimicrobial resistance mutation has been found in any sample. One
exciting feature is that most samples have Gln126Leu and Asp605Glu amino
acid polymorphisms in the UL97 translated sequence \_(Plot8\_\_. Below
table summarizes detected polymorphisms by the server. Asp605Glu
polymorphism previously shown to be more prevalant in infants with
primary HCMV infection compared with HCMV recurrence in transplant
recipients (@sun_human_2012).  
  
  

    ## # A tibble: 38 × 39
    ##    sample change freq  genome_pos strand ref_codon var_codon ref_count var_count
    ##    <chr>  <chr>  <chr>      <dbl> <chr>  <chr>     <chr>         <dbl>     <dbl>
    ##  1 ERR70… UL97_… 100%      143612 +      GAC       GAG               0        97
    ##  2 ERR70… UL97_… 100%      142174 +      CAG       CTG               0        74
    ##  3 ERR70… UL97_… 100%      142174 +      CAG       CTG               0        33
    ##  4 ERR70… UL97_… 100%      143612 +      GAC       GAG               0       322
    ##  5 ERR70… UL97_… 100%      142174 +      CAG       CTG               0       174
    ##  6 ERR70… UL97_… 100%      143612 +      GAC       GAG               0       763
    ##  7 ERR70… UL97_… 100%      142174 +      CAG       CTG               0       511
    ##  8 ERR70… UL97_… 100%      143612 +      GAC       GAG               0       764
    ##  9 ERR70… UL97_… 100%      142174 +      CAG       CTG               0       594
    ## 10 ERR70… UL97_… 100%      143612 +      GAC       GAG               0       684
    ## # ℹ 28 more rows
    ## # ℹ 30 more variables: consequence <chr>, mutation_id <dbl>, virus <chr>,
    ## #   genotype <lgl>, gene <chr>, aa_change <chr>, Ganciclovir <chr>,
    ## #   Aciclovir <lgl>, Cidofovir <lgl>, Foscarnet <lgl>, Brincidofovir <lgl>,
    ## #   Letermovir <lgl>, Brivudine <lgl>, Pencyclovir <lgl>, Tomeglovir <lgl>,
    ## #   Maribavir <lgl>, Cyclopropavir <lgl>, Amenamevir <lgl>, ref_title <chr>,
    ## #   ref_link <chr>, ref_doi <chr>, strain_generation <chr>, …
…
There was no sample which has more than one strain. Only one genotype
has been detected for each sample - variable gene
combinations(genotype_counts.txt file). Genes, genotypes, number of
reads carry that genotype motif and the percetage of reads were
summarized in table below.  
  

    ## # A tibble: 434 × 5
    ##    Region Genotype Percentage.of.Reads Num.of.Reads Sample    
    ##    <chr>  <chr>                  <dbl> <chr>        <chr>     
    ##  1 RL5A   G1                     100   "557 "       ERR7018437
    ##  2 RL6    G2                     100   "353 "       ERR7018437
    ##  3 UL74   G2B                    100   "432 "       ERR7018437
    ##  4 RL12   G4A                    100   "602 "       ERR7018437
    ##  5 UL11   G6                      99.8 "585 "       ERR7018437
    ##  6 UL139  G1A                    100   "407 "       ERR7018437
    ##  7 UL111A WT                     100   "300 "       ERR7018437
    ##  8 UL9    G9                     100   "541 "       ERR7018437
    ##  9 UL146  G13                    100   "289 "       ERR7018437
    ## 10 UL120  G1B                     99.5 "375 "       ERR7018437
    ## # ℹ 424 more rows
…
